NUISANCE_PARAMETERS
Unfolding_Bin_001_mu  1 +0.0634357 -0.0622664
Unfolding_Bin_002_mu  1 +0.0900852 -0.0876504
Unfolding_Bin_003_mu  1 +0.0868849 -0.0842619
Unfolding_Bin_004_mu  1 +0.059903 -0.0582767
Unfolding_Bin_005_mu  1 +0.0820343 -0.0786793
Unfolding_Bin_006_mu  1 +0.0923442 -0.0876998
gamma_shape_stat_Unfolding_SR1_Truth_bin_1_SR1_bin_0  1 +0.0169081 -0.0167179
gamma_shape_stat_Unfolding_SR1_Truth_bin_1_SR1_bin_1  1 +0.0950849 -0.0894148
gamma_shape_stat_Unfolding_SR1_Truth_bin_1_SR1_bin_3  1 +0.887284 -0.552955
gamma_shape_stat_Unfolding_SR1_Truth_bin_2_SR1_bin_0  1 +0.0877715 -0.0829176
gamma_shape_stat_Unfolding_SR1_Truth_bin_2_SR1_bin_1  1 +0.0161115 -0.0159386
gamma_shape_stat_Unfolding_SR1_Truth_bin_2_SR1_bin_2  1 +0.0773638 -0.0735678
gamma_shape_stat_Unfolding_SR1_Truth_bin_3_SR1_bin_0  1 +1.35769 -0.698291
gamma_shape_stat_Unfolding_SR1_Truth_bin_3_SR1_bin_1  1 +0.0900831 -0.0849771
gamma_shape_stat_Unfolding_SR1_Truth_bin_3_SR1_bin_2  1 +0.0145852 -0.0144437
gamma_shape_stat_Unfolding_SR1_Truth_bin_3_SR1_bin_3  1 +0.0851187 -0.0805452
gamma_shape_stat_Unfolding_SR1_Truth_bin_4_SR1_bin_2  1 +0.093881 -0.0883476
gamma_shape_stat_Unfolding_SR1_Truth_bin_4_SR1_bin_3  1 +0.0105017 -0.0104285
gamma_shape_stat_Unfolding_SR1_Truth_bin_4_SR1_bin_4  1 +0.128828 -0.118624
gamma_shape_stat_Unfolding_SR1_Truth_bin_5_SR1_bin_1  1 +1.35769 -0.698291
gamma_shape_stat_Unfolding_SR1_Truth_bin_5_SR1_bin_3  1 +0.103676 -0.0969672
gamma_shape_stat_Unfolding_SR1_Truth_bin_5_SR1_bin_4  1 +0.0151154 -0.0149639
gamma_shape_stat_Unfolding_SR1_Truth_bin_5_SR1_bin_5  1 +0.139711 -0.127788
gamma_shape_stat_Unfolding_SR1_Truth_bin_6_SR1_bin_4  1 +0.149169 -0.135652
gamma_shape_stat_Unfolding_SR1_Truth_bin_6_SR1_bin_5  1 +0.0218724 -0.0215568
gamma_shape_stat_Unfolding_SR2_Truth_bin_1_SR2_bin_0  1 +0.0110826 -0.0110011
gamma_shape_stat_Unfolding_SR2_Truth_bin_1_SR2_bin_1  1 +0.0746587 -0.0711195
gamma_shape_stat_Unfolding_SR2_Truth_bin_2_SR2_bin_0  1 +0.0810955 -0.0769339
gamma_shape_stat_Unfolding_SR2_Truth_bin_2_SR2_bin_1  1 +0.0163366 -0.0161603
gamma_shape_stat_Unfolding_SR2_Truth_bin_2_SR2_bin_2  1 +0.115709 -0.107416
gamma_shape_stat_Unfolding_SR2_Truth_bin_3_SR2_bin_1  1 +0.104886 -0.0980259
gamma_shape_stat_Unfolding_SR2_Truth_bin_3_SR2_bin_2  1 +0.0228084 -0.022468
gamma_shape_stat_Unfolding_SR2_Truth_bin_3_SR2_bin_3  1 +0.200044 -0.176437
gamma_shape_stat_Unfolding_SR2_Truth_bin_3_SR2_bin_4  1 +1.35762 -0.698287
gamma_shape_stat_Unfolding_SR2_Truth_bin_4_SR2_bin_0  1 +1.35769 -0.698291
gamma_shape_stat_Unfolding_SR2_Truth_bin_4_SR2_bin_2  1 +0.140089 -0.128105
gamma_shape_stat_Unfolding_SR2_Truth_bin_4_SR2_bin_3  1 +0.0293547 -0.0287951
gamma_shape_stat_Unfolding_SR2_Truth_bin_4_SR2_bin_4  1 +0.658515 -0.455805
gamma_shape_stat_Unfolding_SR2_Truth_bin_5_SR2_bin_3  1 +0.546789 -0.399674
gamma_shape_stat_Unfolding_SR2_Truth_bin_5_SR2_bin_4  1 +0.0938268 -0.0883531
gamma_shape_stat_Unfolding_SR2_Truth_bin_5_SR2_bin_5  1 +1.3575 -0.698279
gamma_shape_stat_Unfolding_SR2_Truth_bin_6_SR2_bin_0  1 +1.35769 -0.698291
gamma_shape_stat_Unfolding_SR2_Truth_bin_6_SR2_bin_4  1 +0.712477 -0.480684
gamma_shape_stat_Unfolding_SR2_Truth_bin_6_SR2_bin_5  1 +0.177658 -0.159007


CORRELATION_MATRIX
44   44
6.95349e-07   -5.00639e-08   -0.000612645   2.07685e-07   -3.46151e-09   3.71153e-07   -1.85838e-07   4.36818e-06   -7.50149e-07   -0.000363098   2.92363e-07   9.97482e-07   -6.44579e-06   8.6888e-05   -1.60417e-06   0.000589654   -0.00863622   0.000189912   -0.0912078   1.1633e-05   -3.77234e-07   3.14609e-06   2.82887e-06   3.71111e-06   3.72326e-05   -2.56145e-07   6.20689e-06   -1.76306e-05   -3.94068e-07   -0.000105028   0.000705739   -0.000190134   -1.86808e-05   0.00388845   -0.0161362   5.35155e-07   0.00100186   -0.128016   -4.09586e-05   1.2922e-05   -0.000284943   0.00293134   -0.0626539   1   
-4.74601e-06   9.29817e-07   -1.59726e-06   -4.69927e-06   1.05125e-06   6.41177e-07   1.19949e-06   9.96164e-06   0.000106453   4.30558e-05   -4.5182e-06   -2.73682e-06   0.000716202   -0.00757833   0.000149966   -0.0508616   0.000403089   -0.0163781   0.00401291   -5.00026e-06   2.63146e-06   -1.02088e-06   1.60334e-05   -7.83738e-06   -0.00114282   2.69704e-06   -7.90172e-05   0.000666505   -9.43076e-06   0.00412613   -0.0229268   1.09214e-05   0.000706874   -0.12603   0.000433469   -6.63644e-07   -0.0324304   0.00345515   2.08254e-05   -0.000121888   0.00196162   -0.0634365   1   -0.0626539   
-4.62623e-06   -1.0089e-05   7.78988e-07   -4.49887e-06   -7.30195e-05   3.52177e-06   -1.4701e-05   9.42242e-05   -0.00552142   -2.5048e-06   -9.25529e-06   7.17685e-06   -0.0366049   0.000322033   -0.00753935   0.00206561   -1.67025e-05   0.000671325   -0.000159454   3.16819e-06   -4.38088e-06   2.04358e-06   -2.49172e-05   0.000288675   4.3338e-05   -4.51625e-06   0.00294301   -0.0230139   0.00036682   -0.142186   0.000718924   3.54776e-06   -0.0244237   0.00393778   -1.55202e-05   2.88804e-05   0.00101731   -8.14183e-05   -1.56338e-05   0.0006912   -0.0409142   1   -0.0634365   0.00293134   
-2.90644e-06   1.26726e-05   1.22352e-07   1.20932e-08   8.05639e-05   -0.0014251   1.81617e-05   -0.024829   0.000126103   1.64906e-08   4.71306e-06   -0.00406237   0.000848503   -8.31311e-06   0.000173791   -5.18514e-05   2.05238e-06   -1.70567e-05   2.25299e-05   -5.38571e-05   0.000362375   -3.36753e-06   0.00242334   -0.0167306   -1.01472e-06   0.000354452   -0.166184   0.000528673   -0.0210372   0.00327627   -9.39083e-06   4.90908e-06   0.000556719   -7.49106e-05   3.80778e-06   -0.00190447   -1.58289e-05   3.22574e-05   0.000623136   -0.0263882   1   -0.0409142   0.00196162   -0.000284943   
0.000187649   -0.00140895   1.94109e-07   1.47688e-05   -0.0140348   2.74615e-05   -0.00235524   0.000534127   -1.34879e-06   -1.27626e-06   -0.000721736   8.24393e-05   -1.28317e-05   6.15321e-07   -1.41635e-06   5.39609e-06   -7.24116e-07   1.74774e-06   -1.59838e-06   0.00388894   -0.0268437   0.000389187   -0.180377   0.000200967   3.12786e-07   -0.0261794   0.00200753   -4.92008e-06   0.000255778   -3.17619e-05   -3.88586e-06   -1.39099e-06   -5.10712e-06   -8.66697e-06   -1.45092e-07   2.56081e-05   -2.88175e-06   -2.27238e-06   -0.0311932   1   -0.0263882   0.0006912   -0.000121888   1.2922e-05   
-0.00990729   1.87998e-05   -1.01145e-07   -0.000783775   0.000187456   -4.49569e-07   2.80119e-05   -1.16823e-05   1.52584e-07   4.09762e-05   7.44005e-06   -6.81897e-06   -4.77176e-06   -1.39427e-08   -8.59727e-08   -9.3927e-07   2.08008e-05   -3.02573e-07   2.40668e-05   -0.232738   0.000368441   -0.0232081   0.00244631   -2.92079e-06   -1.4641e-07   0.000357639   -2.93626e-05   6.84493e-08   -3.76809e-06   4.97295e-06   4.17529e-06   4.61632e-06   6.99446e-08   2.62092e-06   6.30454e-07   -2.9769e-07   3.9835e-06   9.60526e-06   1   -0.0311932   0.000623136   -1.56338e-05   2.08254e-05   -4.09586e-05   
-1.11161e-07   3.58257e-09   7.84565e-05   -1.63501e-07   9.7366e-09   9.74438e-08   -1.34258e-07   -7.26329e-07   -2.58912e-07   4.63893e-05   -1.6098e-08   -1.35163e-07   -2.6026e-06   2.37418e-05   -6.66768e-07   0.000157467   0.0011062   5.07017e-05   0.0116838   -1.15023e-07   -1.15961e-07   1.95065e-06   4.60471e-06   -5.20056e-07   3.04659e-07   2.31008e-08   -1.22695e-06   -9.04878e-07   -6.6015e-09   -1.12287e-06   1.94418e-05   -2.48036e-05   -9.62018e-07   8.35908e-05   -0.00234271   8.01883e-08   2.4998e-05   1   9.60526e-06   -2.27238e-06   3.22574e-05   -8.14183e-05   0.00345515   -0.128016   
1.14014e-07   -1.12441e-08   5.30747e-07   -6.97725e-10   1.25825e-07   1.22655e-07   -1.64164e-07   -5.50686e-07   2.45998e-06   -1.02328e-06   1.60781e-07   6.04191e-08   1.49443e-05   0.00024649   2.84369e-06   0.00165336   -4.16754e-06   0.000532398   -3.60826e-05   1.48382e-06   -1.00205e-07   2.37723e-06   5.43661e-06   -1.3242e-07   -1.14741e-05   4.90758e-08   -1.32453e-06   2.34945e-06   -1.79085e-07   1.92511e-05   -0.00032855   4.93004e-06   2.50833e-06   -0.00181493   2.58378e-06   1.36163e-07   1   2.4998e-05   3.9835e-06   -2.88175e-06   -1.58289e-05   0.00101731   -0.0324304   0.00100186   
-1.55531e-07   1.66349e-07   -3.21969e-10   2.5087e-11   3.51689e-07   2.71681e-06   2.38274e-08   4.74895e-05   3.05399e-08   1.55561e-07   -1.4635e-07   7.90027e-06   3.36016e-07   -5.41653e-11   3.87676e-08   1.53888e-07   1.51002e-07   1.55081e-07   1.07144e-07   1.28974e-07   -2.91905e-08   1.4848e-07   -1.62232e-08   2.93575e-06   -1.37673e-10   1.25042e-07   -2.13133e-05   2.77335e-07   -3.2058e-06   8.91165e-07   -1.72708e-07   -3.20557e-07   2.93079e-07   1.084e-07   -1.64828e-07   1   1.36163e-07   8.01883e-08   -2.9769e-07   2.56081e-05   -0.00190447   2.88804e-05   -6.63644e-07   5.35155e-07   
-8.50311e-09   2.77163e-10   1.00651e-05   1.55565e-07   -6.07858e-10   -1.62746e-07   1.58544e-07   -8.01704e-08   -1.78712e-07   5.84724e-06   -2.08211e-09   -1.51187e-08   -1.31549e-07   2.83337e-06   1.32176e-07   1.99594e-05   0.000139436   6.42659e-06   0.00147273   -1.91318e-07   1.60868e-07   -6.08585e-08   -7.71711e-08   -5.91689e-08   2.16775e-07   2.64786e-09   -9.1651e-08   1.15923e-08   7.17309e-09   -1.87227e-08   1.861e-06   -6.81615e-06   1.20873e-08   1.01844e-05   1   -1.64828e-07   2.58378e-06   -0.00234271   6.30454e-07   -1.45092e-07   3.80778e-06   -1.55202e-05   0.000433469   -0.0161362   
5.69637e-07   -4.65737e-08   2.5126e-06   4.54434e-07   4.60519e-07   4.96023e-08   -1.95509e-07   -1.79242e-06   9.20064e-06   -3.97535e-06   6.23467e-07   2.91865e-07   5.86583e-05   0.000957457   1.16182e-05   0.00642525   -1.61534e-05   0.00206899   -0.000139773   1.83622e-06   7.33147e-08   2.42686e-06   6.67056e-06   -2.84557e-07   -6.27431e-05   2.05846e-07   -2.86332e-06   9.55345e-06   -4.06719e-07   6.2916e-05   -0.00128274   4.4091e-06   1.01968e-05   1   1.01844e-05   1.084e-07   -0.00181493   8.35908e-05   2.62092e-06   -8.66697e-06   -7.49106e-05   0.00393778   -0.12603   0.00388845   
1.19044e-07   2.40754e-07   -1.72453e-07   -4.04935e-08   1.75231e-06   7.00382e-07   1.96333e-07   8.70345e-06   0.000135259   2.49227e-08   2.28461e-07   1.62953e-06   0.000895676   -1.31747e-06   0.000184322   -7.5379e-06   6.73042e-08   -2.57835e-06   5.02016e-07   -5.52597e-08   -2.10503e-07   -5.76896e-08   -5.00188e-07   3.61069e-07   -2.48793e-07   -4.89822e-08   1.73489e-06   -0.000116472   3.59632e-07   -0.000694446   1.77281e-06   3.53857e-08   1   1.01968e-05   1.20873e-08   2.93079e-07   2.50833e-06   -9.62018e-07   6.99446e-08   -5.10712e-06   0.000556719   -0.0244237   0.000706874   -1.86808e-05   
-2.01136e-07   1.56935e-07   1.16508e-07   -3.42094e-09   1.71973e-07   -7.34504e-09   2.38051e-09   2.99309e-08   -2.30787e-08   2.24688e-07   -1.54857e-07   1.34585e-07   4.23228e-09   -9.91681e-09   -3.13947e-08   8.85563e-08   1.79752e-06   1.33678e-07   1.74981e-05   1.48526e-06   7.15591e-09   2.52015e-06   5.27013e-06   -2.39318e-07   -7.54292e-09   1.6251e-07   -6.68339e-07   4.23162e-08   5.11244e-08   4.50464e-06   4.67718e-06   1   3.53857e-08   4.4091e-06   -6.81615e-06   -3.20557e-07   4.93004e-06   -2.48036e-05   4.61632e-06   -1.39099e-06   4.90908e-06   3.54776e-06   1.09214e-05   -0.000190134   
6.69608e-08   -5.49134e-09   6.42362e-07   2.64058e-07   1.13356e-07   -1.81421e-07   1.53761e-07   -4.33404e-07   1.4747e-06   -7.22438e-07   1.14917e-07   3.55018e-08   1.05733e-05   0.000173993   2.27778e-06   0.00116886   -2.92438e-06   0.000376383   -2.52779e-05   1.44321e-06   2.35611e-07   2.37379e-06   5.60045e-06   -1.23203e-07   -7.48212e-06   7.44372e-08   -1.23023e-06   1.66052e-06   -1.63802e-07   1.5085e-05   1   4.67718e-06   1.77281e-06   -0.00128274   1.861e-06   -1.72708e-07   -0.00032855   1.94418e-05   4.17529e-06   -3.88586e-06   -9.39083e-06   0.000718924   -0.0229268   0.000705739   
6.46852e-07   1.40325e-06   -2.58849e-07   5.08498e-07   1.02162e-05   3.27921e-06   1.89383e-06   4.97923e-05   0.000786674   1.44148e-07   1.33073e-06   9.34313e-06   0.00521426   -8.50256e-06   0.00107379   -4.44518e-05   3.58186e-07   -1.51934e-05   2.56366e-06   1.06236e-06   -4.63533e-07   2.06734e-06   2.31836e-06   1.51187e-06   -7.14709e-07   -2.71663e-07   4.23805e-06   -0.000658833   1.35159e-06   1   1.5085e-05   4.50464e-06   -0.000694446   6.2916e-05   -1.87227e-08   8.91165e-07   1.92511e-05   -1.12287e-06   4.97295e-06   -3.17619e-05   0.00327627   -0.142186   0.00412613   -0.000105028   
7.49742e-09   1.60417e-07   -1.54921e-07   -1.57381e-07   2.54645e-06   3.01651e-05   1.75769e-07   0.000522826   2.31111e-07   3.06578e-09   1.2167e-07   8.55472e-05   2.42985e-07   1.68892e-07   -8.48357e-08   5.74708e-08   7.90101e-09   2.30252e-08   5.52877e-08   -3.28946e-08   2.60329e-07   -4.67608e-08   3.03401e-06   -2.42669e-05   -1.55447e-07   3.83121e-07   -0.000242036   2.5276e-07   1   1.35159e-06   -1.63802e-07   5.11244e-08   3.59632e-07   -4.06719e-07   7.17309e-09   -3.2058e-06   -1.79085e-07   -6.6015e-09   -3.76809e-06   0.000255778   -0.0210372   0.00036682   -9.43076e-06   -3.94068e-07   
1.12171e-07   2.2691e-07   -1.71468e-07   -4.71289e-08   1.6515e-06   6.63087e-07   1.76101e-07   8.09936e-06   0.00012746   2.35026e-08   2.1529e-07   1.51883e-06   0.000843972   -1.23574e-06   0.000173673   -7.12489e-06   6.36011e-08   -2.43663e-06   4.7486e-07   -5.23e-08   -2.05841e-07   -5.43843e-08   -4.61411e-07   2.71741e-07   -2.43898e-07   -4.47027e-08   9.54497e-07   1   2.5276e-07   -0.000658833   1.66052e-06   4.23162e-08   -0.000116472   9.55345e-06   1.15923e-08   2.77335e-07   2.34945e-06   -9.04878e-07   6.84493e-08   -4.92008e-06   0.000528673   -0.0230139   0.000666505   -1.76306e-05   
5.50019e-08   1.28478e-06   -1.58718e-07   -1.72973e-07   2.02919e-05   0.000237217   2.48907e-06   0.00413003   5.04769e-07   2.07623e-08   9.69943e-07   0.000675774   2.61875e-07   2.87081e-07   5.94698e-08   6.09138e-07   -1.75286e-08   2.32122e-07   -4.06701e-07   -3.09852e-07   3.47563e-06   -3.74295e-07   2.63065e-05   -0.000193144   -1.53789e-07   3.36594e-06   1   9.54497e-07   -0.000242036   4.23805e-06   -1.23023e-06   -6.68339e-07   1.73489e-06   -2.86332e-06   -9.1651e-08   -2.13133e-05   -1.32453e-06   -1.22695e-06   -2.93626e-05   0.00200753   -0.166184   0.00294301   -7.90172e-05   6.20689e-06   
-3.63233e-07   3.69053e-05   -1.59726e-07   -1.81508e-07   0.000367634   -8.48561e-08   6.15396e-05   -5.63001e-06   1.48517e-07   1.47365e-08   1.89062e-05   -7.8906e-07   5.95516e-08   1.40061e-07   -1.74701e-07   -1.32155e-07   9.09388e-09   -4.26232e-08   2.60236e-08   5.04732e-06   -2.72625e-05   4.5516e-07   -0.000183578   3.68657e-07   -1.62858e-07   1   3.36594e-06   -4.47027e-08   3.83121e-07   -2.71663e-07   7.44372e-08   1.6251e-07   -4.89822e-08   2.05846e-07   2.64786e-09   1.25042e-07   4.90758e-08   2.31008e-08   0.000357639   -0.0261794   0.000354452   -4.51625e-06   2.69704e-06   -2.56145e-07   
-1.48714e-07   -1.56286e-07   2.30211e-08   5.87867e-09   -1.57109e-07   -7.95036e-10   -9.11523e-10   -1.70127e-07   3.99797e-08   -1.92254e-07   1.60936e-07   -1.52385e-07   9.64361e-08   8.67897e-06   4.94115e-08   5.80946e-05   -3.18781e-07   1.86019e-05   -1.60217e-06   -1.17497e-07   3.03786e-07   -1.51444e-07   -2.07557e-07   1.55912e-07   1   -1.62858e-07   -1.53789e-07   -2.43898e-07   -1.55447e-07   -7.14709e-07   -7.48212e-06   -7.54292e-09   -2.48793e-07   -6.27431e-05   2.16775e-07   -1.37673e-10   -1.14741e-05   3.04659e-07   -1.4641e-07   3.12786e-07   -1.01472e-06   4.3338e-05   -0.00114282   3.72326e-05   
5.10715e-09   1.30986e-07   1.53529e-07   1.54019e-07   2.05904e-06   2.37109e-05   4.24807e-07   0.0004158   -7.84846e-08   9.7916e-10   9.85217e-08   6.80351e-05   3.05776e-07   -1.43389e-07   2.35015e-07   5.63944e-08   -2.84587e-08   2.17338e-08   -3.22982e-07   -3.55683e-08   5.51937e-07   -3.81276e-08   2.85364e-06   1   1.55912e-07   3.68657e-07   -0.000193144   2.71741e-07   -2.42669e-05   1.51187e-06   -1.23203e-07   -2.39318e-07   3.61069e-07   -2.84557e-07   -5.91689e-08   2.93575e-06   -1.3242e-07   -5.20056e-07   -2.92079e-06   0.000200967   -0.0167306   0.000288675   -7.83738e-06   3.71111e-06   
-2.32717e-06   0.00025428   -1.89815e-07   -3.2318e-07   0.00253303   -1.47152e-06   0.000424927   -3.83271e-05   7.77426e-08   9.9092e-08   0.000130266   -5.3607e-06   1.9855e-07   6.82421e-08   -3.33527e-07   -7.98237e-07   2.29355e-08   -2.57473e-07   -2.36285e-07   4.13814e-05   -0.000191038   6.06783e-06   1   2.85364e-06   -2.07557e-07   -0.000183578   2.63065e-05   -4.61411e-07   3.03401e-06   2.31836e-06   5.60045e-06   5.27013e-06   -5.00188e-07   6.67056e-06   -7.71711e-08   -1.62232e-08   5.43661e-06   4.60471e-06   0.00244631   -0.180377   0.00242334   -2.49172e-05   1.60334e-05   2.82887e-06   
0.000229971   3.55634e-08   -1.53596e-07   1.80387e-05   3.49841e-07   1.52458e-07   -1.58973e-08   3.42239e-08   1.40825e-07   -9.5179e-07   6.9061e-08   1.21192e-07   4.43975e-08   1.57904e-07   -1.66705e-07   4.13594e-08   -5.01656e-07   1.33301e-08   -7.58094e-07   -0.000211545   2.72027e-07   1   6.06783e-06   -3.81276e-08   -1.51444e-07   4.5516e-07   -3.74295e-07   -5.43843e-08   -4.67608e-08   2.06734e-06   2.37379e-06   2.52015e-06   -5.76896e-08   2.42686e-06   -6.08585e-08   1.4848e-07   2.37723e-06   1.95065e-06   -0.0232081   0.000389187   -3.36753e-06   2.04358e-06   -1.02088e-06   3.14609e-06   
-5.4533e-07   3.76864e-05   -4.1922e-09   -2.77382e-08   0.000376808   -2.44856e-07   6.32612e-05   -5.90153e-06   -8.27027e-09   -1.40326e-07   1.95417e-05   -9.59983e-07   -1.02747e-07   -1.45643e-08   -2.09837e-08   -2.83307e-07   -1.4494e-07   -1.96484e-07   -1.17258e-07   4.62324e-06   1   2.72027e-07   -0.000191038   5.51937e-07   3.03786e-07   -2.72625e-05   3.47563e-06   -2.05841e-07   2.60329e-07   -4.63533e-07   2.35611e-07   7.15591e-09   -2.10503e-07   7.33147e-08   1.60868e-07   -2.91905e-08   -1.00205e-07   -1.15961e-07   0.000368441   -0.0268437   0.000362375   -4.38088e-06   2.63146e-06   -3.77234e-07   
0.00230622   3.76594e-07   -1.28745e-07   0.000182297   3.70759e-06   1.59129e-07   1.27415e-06   8.61438e-07   1.09026e-07   -9.53753e-06   7.02876e-07   1.30034e-06   1.0856e-06   1.54667e-07   -1.39779e-07   2.21274e-07   -4.85931e-06   7.12579e-08   -5.79279e-06   1   4.62324e-06   -0.000211545   4.13814e-05   -3.55683e-08   -1.17497e-07   5.04732e-06   -3.09852e-07   -5.23e-08   -3.28946e-08   1.06236e-06   1.44321e-06   1.48526e-06   -5.52597e-08   1.83622e-06   -1.91318e-07   1.28974e-07   1.48382e-06   -1.15023e-07   -0.232738   0.00388894   -5.38571e-05   3.16819e-06   -5.00026e-06   1.1633e-05   
-2.56873e-07   3.42032e-09   -6.31138e-05   -1.81485e-07   2.71154e-09   1.19817e-07   -1.39109e-07   -4.12327e-07   4.21242e-08   1.32361e-05   -1.88256e-08   -8.59079e-08   -6.29311e-07   5.16666e-06   -2.63188e-07   3.30437e-05   -0.000718139   1.06372e-05   1   -5.79279e-06   -1.17258e-07   -7.58094e-07   -2.36285e-07   -3.22982e-07   -1.60217e-06   2.60236e-08   -4.06701e-07   4.7486e-07   5.52877e-08   2.56366e-06   -2.52779e-05   1.74981e-05   5.02016e-07   -0.000139773   0.00147273   1.07144e-07   -3.60826e-05   0.0116838   2.40668e-05   -1.59838e-06   2.25299e-05   -0.000159454   0.00401291   -0.0912078   
7.95196e-08   -1.15589e-08   3.85573e-07   -7.61841e-08   9.99875e-09   1.43056e-07   -1.69151e-07   -1.987e-07   4.47068e-07   -4.02616e-07   7.76099e-08   4.20946e-08   1.76519e-06   -0.000318861   1.68391e-07   -0.0021845   6.27359e-07   1   1.06372e-05   7.12579e-08   -1.96484e-07   1.33301e-08   -2.57473e-07   2.17338e-08   1.86019e-05   -4.26232e-08   2.32122e-07   -2.43663e-06   2.30252e-08   -1.51934e-05   0.000376383   1.33678e-07   -2.57835e-06   0.00206899   6.42659e-06   1.55081e-07   0.000532398   5.07017e-05   -3.02573e-07   1.74774e-06   -1.70567e-05   0.000671325   -0.0163781   0.000189912   
-2.07722e-07   7.24416e-10   5.32181e-06   -1.72419e-07   4.07466e-09   1.52165e-07   -1.53244e-07   -3.55767e-08   1.47878e-07   2.30648e-05   -1.72926e-09   -7.75884e-09   -3.7904e-08   4.5409e-07   -1.61045e-07   1.94921e-06   1   6.27359e-07   -0.000718139   -4.85931e-06   -1.4494e-07   -5.01656e-07   2.29355e-08   -2.84587e-08   -3.18781e-07   9.09388e-09   -1.75286e-08   6.36011e-08   7.90101e-09   3.58186e-07   -2.92438e-06   1.79752e-06   6.73042e-08   -1.61534e-05   0.000139436   1.51002e-07   -4.16754e-06   0.0011062   2.08008e-05   -7.24116e-07   2.05238e-06   -1.67025e-05   0.000403089   -0.00863622   
2.46556e-07   -3.57771e-08   1.52397e-06   9.00291e-08   3.17251e-08   1.17192e-07   -1.9846e-07   -6.26916e-07   1.16784e-06   -1.25027e-06   2.41161e-07   1.2927e-07   6.18497e-06   -0.00100315   9.94425e-07   1   1.94921e-06   -0.0021845   3.30437e-05   2.21274e-07   -2.83307e-07   4.13594e-08   -7.98237e-07   5.63944e-08   5.80946e-05   -1.32155e-07   6.09138e-07   -7.12489e-06   5.74708e-08   -4.44518e-05   0.00116886   8.85563e-08   -7.5379e-06   0.00642525   1.99594e-05   1.53888e-07   0.00165336   0.000157467   -9.3927e-07   5.39609e-06   -5.18514e-05   0.00206561   -0.0508616   0.000589654   
-1.07338e-07   -8.12851e-08   -4.97473e-09   4.6254e-08   3.9298e-07   1.65503e-07   1.08621e-07   2.4833e-06   -0.000263766   -1.50735e-07   2.36443e-07   3.50308e-07   -0.00174179   6.34063e-08   1   9.94425e-07   -1.61045e-07   1.68391e-07   -2.63188e-07   -1.39779e-07   -2.09837e-08   -1.66705e-07   -3.33527e-07   2.35015e-07   4.94115e-08   -1.74701e-07   5.94698e-08   0.000173673   -8.48357e-08   0.00107379   2.27778e-06   -3.13947e-08   0.000184322   1.16182e-05   1.32176e-07   3.87676e-08   2.84369e-06   -6.66768e-07   -8.59727e-08   -1.41635e-06   0.000173791   -0.00753935   0.000149966   -1.60417e-06   
-1.20105e-07   1.50071e-07   2.51e-07   3.68311e-08   1.61753e-07   -5.96312e-09   -6.40917e-09   6.32242e-08   7.14645e-08   -3.04227e-08   -1.19724e-07   1.74582e-07   5.53525e-07   1   6.34063e-08   -0.00100315   4.5409e-07   -0.000318861   5.16666e-06   1.54667e-07   -1.45643e-08   1.57904e-07   6.82421e-08   -1.43389e-07   8.67897e-06   1.40061e-07   2.87081e-07   -1.23574e-06   1.68892e-07   -8.50256e-06   0.000173993   -9.91681e-09   -1.31747e-06   0.000957457   2.83337e-06   -5.41653e-11   0.00024649   2.37418e-05   -1.39427e-08   6.15321e-07   -8.31311e-06   0.000322033   -0.00757833   8.6888e-05   
-4.73508e-06   3.76408e-07   -1.81501e-07   -4.94347e-06   -2.26999e-06   9.53793e-07   3.96713e-07   1.27038e-05   -0.0012734   2.24444e-08   -4.6204e-06   -2.58546e-06   1   5.53525e-07   -0.00174179   6.18497e-06   -3.7904e-08   1.76519e-06   -6.29311e-07   1.0856e-06   -1.02747e-07   4.43975e-08   1.9855e-07   3.05776e-07   9.64361e-08   5.95516e-08   2.61875e-07   0.000843972   2.42985e-07   0.00521426   1.05733e-05   4.23228e-09   0.000895676   5.86583e-05   -1.31549e-07   3.36016e-07   1.49443e-05   -2.6026e-06   -4.77176e-06   -1.28317e-05   0.000848503   -0.0366049   0.000716202   -6.44579e-06   
-4.90948e-06   -4.94797e-09   -1.55787e-07   -5.11895e-06   -4.92269e-06   -0.000116995   -5.12934e-06   -0.00192333   5.30217e-07   -7.04745e-11   -4.97029e-06   1   -2.58546e-06   1.74582e-07   3.50308e-07   1.2927e-07   -7.75884e-09   4.20946e-08   -8.59079e-08   1.30034e-06   -9.59983e-07   1.21192e-07   -5.3607e-06   6.80351e-05   -1.52385e-07   -7.8906e-07   0.000675774   1.51883e-06   8.55472e-05   9.34313e-06   3.55018e-08   1.34585e-07   1.62953e-06   2.91865e-07   -1.51187e-08   7.90027e-06   6.04191e-08   -1.35163e-07   -6.81897e-06   8.24393e-05   -0.00406237   7.17685e-06   -2.73682e-06   9.97482e-07   
-4.94993e-06   -8.21765e-05   1.5549e-07   -4.80715e-06   -0.000820179   -1.49767e-07   -0.000140155   -1.07797e-08   -9.62775e-08   1.26929e-10   1   -4.97029e-06   -4.6204e-06   -1.19724e-07   2.36443e-07   2.41161e-07   -1.72926e-09   7.76099e-08   -1.88256e-08   7.02876e-07   1.95417e-05   6.9061e-08   0.000130266   9.85217e-08   1.60936e-07   1.89062e-05   9.69943e-07   2.1529e-07   1.2167e-07   1.33073e-06   1.14917e-07   -1.54857e-07   2.28461e-07   6.23467e-07   -2.08211e-09   -1.4635e-07   1.60781e-07   -1.6098e-08   7.44005e-06   -0.000721736   4.71306e-06   -9.25529e-06   -4.5182e-06   2.92363e-07   
-4.05929e-07   8.43205e-10   6.85269e-08   -1.87759e-07   8.05862e-09   1.55569e-07   -1.54256e-07   1.95476e-09   1.58825e-07   1   1.26929e-10   -7.04745e-11   2.24444e-08   -3.04227e-08   -1.50735e-07   -1.25027e-06   2.30648e-05   -4.02616e-07   1.32361e-05   -9.53753e-06   -1.40326e-07   -9.5179e-07   9.9092e-08   9.7916e-10   -1.92254e-07   1.47365e-08   2.07623e-08   2.35026e-08   3.06578e-09   1.44148e-07   -7.22438e-07   2.24688e-07   2.49227e-08   -3.97535e-06   5.84724e-06   1.55561e-07   -1.02328e-06   4.63893e-05   4.09762e-05   -1.27626e-06   1.64906e-08   -2.5048e-06   4.30558e-05   -0.000363098   
-1.22305e-07   2.09952e-07   -3.80266e-09   3.37732e-08   5.61663e-07   1.22658e-07   7.9555e-08   2.11664e-06   1   1.58825e-07   -9.62775e-08   5.30217e-07   -0.0012734   7.14645e-08   -0.000263766   1.16784e-06   1.47878e-07   4.47068e-07   4.21242e-08   1.09026e-07   -8.27027e-09   1.40825e-07   7.77426e-08   -7.84846e-08   3.99797e-08   1.48517e-07   5.04769e-07   0.00012746   2.31111e-07   0.000786674   1.4747e-06   -2.30787e-08   0.000135259   9.20064e-06   -1.78712e-07   3.05399e-08   2.45998e-06   -2.58912e-07   1.52584e-07   -1.34879e-06   0.000126103   -0.00552142   0.000106453   -7.50149e-07   
6.40485e-08   -1.34747e-07   -1.58909e-07   -1.43019e-07   -2.16976e-07   -0.000675448   -2.97016e-07   1   2.11664e-06   1.95476e-09   -1.07797e-08   -0.00192333   1.27038e-05   6.32242e-08   2.4833e-06   -6.26916e-07   -3.55767e-08   -1.987e-07   -4.12327e-07   8.61438e-07   -5.90153e-06   3.42239e-08   -3.83271e-05   0.0004158   -1.70127e-07   -5.63001e-06   0.00413003   8.09936e-06   0.000522826   4.97923e-05   -4.33404e-07   2.99309e-08   8.70345e-06   -1.79242e-06   -8.01704e-08   4.74895e-05   -5.50686e-07   -7.26329e-07   -1.16823e-05   0.000534127   -0.024829   9.42242e-05   9.96164e-06   4.36818e-06   
-1.32633e-07   -0.000271035   6.81365e-11   1.58145e-08   -0.0026829   1.26427e-08   1   -2.97016e-07   7.9555e-08   -1.54256e-07   -0.000140155   -5.12934e-06   3.96713e-07   -6.40917e-09   1.08621e-07   -1.9846e-07   -1.53244e-07   -1.69151e-07   -1.39109e-07   1.27415e-06   6.32612e-05   -1.58973e-08   0.000424927   4.24807e-07   -9.11523e-10   6.15396e-05   2.48907e-06   1.76101e-07   1.75769e-07   1.89383e-06   1.53761e-07   2.38051e-09   1.96333e-07   -1.95509e-07   1.58544e-07   2.38274e-08   -1.64164e-07   -1.34258e-07   2.80119e-05   -0.00235524   1.81617e-05   -1.4701e-05   1.19949e-06   -1.85838e-07   
-1.53559e-07   1.60129e-07   -1.83544e-10   9.80001e-10   -4.78742e-06   1   1.26427e-08   -0.000675448   1.22658e-07   1.55569e-07   -1.49767e-07   -0.000116995   9.53793e-07   -5.96312e-09   1.65503e-07   1.17192e-07   1.52165e-07   1.43056e-07   1.19817e-07   1.59129e-07   -2.44856e-07   1.52458e-07   -1.47152e-06   2.37109e-05   -7.95036e-10   -8.48561e-08   0.000237217   6.63087e-07   3.01651e-05   3.27921e-06   -1.81421e-07   -7.34504e-09   7.00382e-07   4.96023e-08   -1.62746e-07   2.71681e-06   1.22655e-07   9.74438e-08   -4.49569e-07   2.74615e-05   -0.0014251   3.52177e-06   6.41177e-07   3.71153e-07   
-5.1148e-06   -0.00160624   -1.58134e-07   -5.12959e-06   1   -4.78742e-06   -0.0026829   -2.16976e-07   5.61663e-07   8.05862e-09   -0.000820179   -4.92269e-06   -2.26999e-06   1.61753e-07   3.9298e-07   3.17251e-08   4.07466e-09   9.99875e-09   2.71154e-09   3.70759e-06   0.000376808   3.49841e-07   0.00253303   2.05904e-06   -1.57109e-07   0.000367634   2.02919e-05   1.6515e-06   2.54645e-06   1.02162e-05   1.13356e-07   1.71973e-07   1.75231e-06   4.60519e-07   -6.07858e-10   3.51689e-07   1.25825e-07   9.7366e-09   0.000187456   -0.0140348   8.05639e-05   -7.30195e-05   1.05125e-06   -3.46151e-09   
-0.00148499   -1.47806e-07   4.10011e-10   1   -5.12959e-06   9.80001e-10   1.58145e-08   -1.43019e-07   3.37732e-08   -1.87759e-07   -4.80715e-06   -5.11895e-06   -4.94347e-06   3.68311e-08   4.6254e-08   9.00291e-08   -1.72419e-07   -7.61841e-08   -1.81485e-07   0.000182297   -2.77382e-08   1.80387e-05   -3.2318e-07   1.54019e-07   5.87867e-09   -1.81508e-07   -1.72973e-07   -4.71289e-08   -1.57381e-07   5.08498e-07   2.64058e-07   -3.42094e-09   -4.04935e-08   4.54434e-07   1.55565e-07   2.5087e-11   -6.97725e-10   -1.63501e-07   -0.000783775   1.47688e-05   1.20932e-08   -4.49887e-06   -4.69927e-06   2.07685e-07   
-1.54494e-07   -1.55528e-07   1   4.10011e-10   -1.58134e-07   -1.83544e-10   6.81365e-11   -1.58909e-07   -3.80266e-09   6.85269e-08   1.5549e-07   -1.55787e-07   -1.81501e-07   2.51e-07   -4.97473e-09   1.52397e-06   5.32181e-06   3.85573e-07   -6.31138e-05   -1.28745e-07   -4.1922e-09   -1.53596e-07   -1.89815e-07   1.53529e-07   2.30211e-08   -1.59726e-07   -1.58718e-07   -1.71468e-07   -1.54921e-07   -2.58849e-07   6.42362e-07   1.16508e-07   -1.72453e-07   2.5126e-06   1.00651e-05   -3.21969e-10   5.30747e-07   7.84565e-05   -1.01145e-07   1.94109e-07   1.22352e-07   7.78988e-07   -1.59726e-06   -0.000612645   
-6.31478e-09   1   -1.55528e-07   -1.47806e-07   -0.00160624   1.60129e-07   -0.000271035   -1.34747e-07   2.09952e-07   8.43205e-10   -8.21765e-05   -4.94797e-09   3.76408e-07   1.50071e-07   -8.12851e-08   -3.57771e-08   7.24416e-10   -1.15589e-08   3.42032e-09   3.76594e-07   3.76864e-05   3.55634e-08   0.00025428   1.30986e-07   -1.56286e-07   3.69053e-05   1.28478e-06   2.2691e-07   1.60417e-07   1.40325e-06   -5.49134e-09   1.56935e-07   2.40754e-07   -4.65737e-08   2.77163e-10   1.66349e-07   -1.12441e-08   3.58257e-09   1.87998e-05   -0.00140895   1.26726e-05   -1.0089e-05   9.29817e-07   -5.00639e-08   
1   -6.31478e-09   -1.54494e-07   -0.00148499   -5.1148e-06   -1.53559e-07   -1.32633e-07   6.40485e-08   -1.22305e-07   -4.05929e-07   -4.94993e-06   -4.90948e-06   -4.73508e-06   -1.20105e-07   -1.07338e-07   2.46556e-07   -2.07722e-07   7.95196e-08   -2.56873e-07   0.00230622   -5.4533e-07   0.000229971   -2.32717e-06   5.10715e-09   -1.48714e-07   -3.63233e-07   5.50019e-08   1.12171e-07   7.49742e-09   6.46852e-07   6.69608e-08   -2.01136e-07   1.19044e-07   5.69637e-07   -8.50311e-09   -1.55531e-07   1.14014e-07   -1.11161e-07   -0.00990729   0.000187649   -2.90644e-06   -4.62623e-06   -4.74601e-06   6.95349e-07   


NLL
4046.59495

