---------------------------------------------------------------------------

Variable |	 abs P8 |	 abs H7 |	 norm P8 |	 norm H7 | 

---------------------------------------------------------------------------

log_pt |	 8.4/6 |	 7.0/6 |	 6.3/5 |	 5.3/5 | 

log_eta |	 12.2/8 |	 9.9/8 |	 9.2/7 |	 7.8/7 | 

log_dr |	 17.6/7 |	 17.2/7 |	 14.2/6 |	 14.7/6 | 

log_dr1 |	 14.9/7 |	 14.1/7 |	 10.2/6 |	 10.7/6 | 

log_dr2 |	 12.9/7 |	 12.4/7 |	 9.7/6 |	 10.5/6 | 

log_dEtall |	 9.5/7 |	 8.3/7 |	 1.9/6 |	 2.4/6 | 

log_dPhill |	 14.7/8 |	 15.6/8 |	 15.4/7 |	 17.1/7 | 

log_ptll |	 19.3/6 |	 15.4/6 |	 9.8/5 |	 7.7/5 | 

log_drphb |	 7.7/5 |	 5.0/5 |	 1.4/4 |	 0.8/4 | 

log_drlj |	 13.6/5 |	 9.7/5 |	 5.3/4 |	 3.7/4 | 

log_ptj1 |	 10.2/5 |	 4.9/5 |	 7.8/4 |	 3.6/4 | 

