bTag_SF_B_eigen0   -6.31791e-05 +0.993352 -0.993352  -0.000742421   0.000372479  -0.000724112   0.000618174 
Bkg_norm   -0.000511302 +0.957291 -0.957291  -0.13238   0.135567  -0.139567   0.139895 
PS   -0.000415471 +0.992483 -0.992483  0.0256323   -0.0215029  0.025849   -0.0213797 
TotalXS   0 +1 -1  1.36929e-07   1.36929e-07  0   0 
gamma_shape_stat_Unfolding_SR1_Truth_bin_10_SR1_bin_10   0.999999 +0.0233522 -0.0233522  0.000263606   1.97937e-05  0   0 
gamma_shape_stat_Unfolding_SR1_Truth_bin_10_SR1_bin_2   1 +0.967002 -0.967002  0.00026721   6.90483e-05  0   0 
gamma_shape_stat_Unfolding_SR1_Truth_bin_10_SR1_bin_4   1 +0.375675 -0.375675  -5.1228e-05   -3.43072e-05  0   0 
gamma_shape_stat_Unfolding_SR1_Truth_bin_10_SR1_bin_5   1 +0.520148 -0.520148  3.1129e-05   -0.000372441  0   0 
gamma_shape_stat_Unfolding_SR1_Truth_bin_10_SR1_bin_6   1 +0.153176 -0.153176  -5.35996e-05   0.000635937  0   0 
gamma_shape_stat_Unfolding_SR1_Truth_bin_10_SR1_bin_7   1 +0.0487154 -0.0487154  0.000682883   -0.000938099  0   0 
gamma_shape_stat_Unfolding_SR1_Truth_bin_10_SR1_bin_8   1 +0.0146865 -0.0146865  -0.00352897   0.00357763  0   0 
gamma_shape_stat_Unfolding_SR1_Truth_bin_10_SR1_bin_9   1 +0.0046759 -0.0046759  0.00113344   -0.00112924  0   0 
gamma_shape_stat_Unfolding_SR1_Truth_bin_11_SR1_bin_10   1 +0.0113328 -0.0113328  -0.000245157   -0.000103348  0   0 
gamma_shape_stat_Unfolding_SR1_Truth_bin_11_SR1_bin_8   1 +0.886673 -0.886673  -7.55389e-06   0.000165899  0   0 
gamma_shape_stat_Unfolding_SR1_Truth_bin_11_SR1_bin_9   1 +0.0390301 -0.0390301  -0.000185752   -0.000833701  0   0 
gamma_shape_stat_Unfolding_SR1_Truth_bin_1_SR1_bin_0   1 +0.00594781 -0.00594781  -0.00232303   0.00195399  0   0 
gamma_shape_stat_Unfolding_SR1_Truth_bin_1_SR1_bin_1   0.999999 +0.00627076 -0.00627076  0.00367246   -0.00355804  0   0 
gamma_shape_stat_Unfolding_SR1_Truth_bin_1_SR1_bin_2   1 +0.0118225 -0.0118225  -0.00253041   0.00348818  0   0 
gamma_shape_stat_Unfolding_SR1_Truth_bin_1_SR1_bin_3   1 +0.0265108 -0.0265108  0.00207774   -0.00185358  0   0 
gamma_shape_stat_Unfolding_SR1_Truth_bin_1_SR1_bin_4   1 +0.0561618 -0.0561618  -0.000163784   0.00141325  0   0 
gamma_shape_stat_Unfolding_SR1_Truth_bin_1_SR1_bin_5   1 +0.154972 -0.154972  0.000647162   -0.000221245  0   0 
gamma_shape_stat_Unfolding_SR1_Truth_bin_1_SR1_bin_6   1 +0.475086 -0.475086  8.12925e-05   -7.38459e-05  0   0 
gamma_shape_stat_Unfolding_SR1_Truth_bin_2_SR1_bin_0   0.999999 +0.00651557 -0.00651557  -0.000683532   0.000522888  0   0 
gamma_shape_stat_Unfolding_SR1_Truth_bin_2_SR1_bin_1   1 +0.00468599 -0.00468599  0.00175091   -0.0018427  0   0 
gamma_shape_stat_Unfolding_SR1_Truth_bin_2_SR1_bin_2   1 +0.00552367 -0.00552367  -0.00273839   0.0020693  0   0 
gamma_shape_stat_Unfolding_SR1_Truth_bin_2_SR1_bin_3   1 +0.00986108 -0.00986108  0.00210907   -0.00205813  0   0 
gamma_shape_stat_Unfolding_SR1_Truth_bin_2_SR1_bin_4   1 +0.021397 -0.021397  -0.000847525   0.00113491  0   0 
gamma_shape_stat_Unfolding_SR1_Truth_bin_2_SR1_bin_5   1 +0.063119 -0.063119  0.00047334   -0.000637907  0   0 
gamma_shape_stat_Unfolding_SR1_Truth_bin_2_SR1_bin_6   1 +0.162988 -0.162988  -0.000115026   0.000222168  0   0 
gamma_shape_stat_Unfolding_SR1_Truth_bin_2_SR1_bin_7   1 +0.851869 -0.851869  1.94542e-05   5.73778e-05  0   0 
gamma_shape_stat_Unfolding_SR1_Truth_bin_3_SR1_bin_0   1 +0.0135374 -0.0135374  -0.000822969   0.000365354  0   0 
gamma_shape_stat_Unfolding_SR1_Truth_bin_3_SR1_bin_1   1 +0.00674912 -0.00674912  0.00357146   -0.00339039  0   0 
gamma_shape_stat_Unfolding_SR1_Truth_bin_3_SR1_bin_2   1 +0.00517337 -0.00517337  -0.00771709   0.0077043  0   0 
gamma_shape_stat_Unfolding_SR1_Truth_bin_3_SR1_bin_3   1 +0.00596894 -0.00596894  0.0100859   -0.00956799  0   0 
gamma_shape_stat_Unfolding_SR1_Truth_bin_3_SR1_bin_4   1 +0.00998384 -0.00998384  -0.00738156   0.00743382  0   0 
gamma_shape_stat_Unfolding_SR1_Truth_bin_3_SR1_bin_5   1 +0.023499 -0.023499  0.00374002   -0.0024052  0   0 
gamma_shape_stat_Unfolding_SR1_Truth_bin_3_SR1_bin_6   1 +0.0576039 -0.0576039  -0.0008261   0.00138344  0   0 
gamma_shape_stat_Unfolding_SR1_Truth_bin_3_SR1_bin_7   1 +0.443725 -0.443725  0.000214418   -0.000101039  0   0 
gamma_shape_stat_Unfolding_SR1_Truth_bin_3_SR1_bin_8   0.999997 +0.967 -0.967  -0.000253206   8.3979e-05  0   0 
gamma_shape_stat_Unfolding_SR1_Truth_bin_4_SR1_bin_0   0.999997 +0.0339771 -0.0339771  -5.5607e-05   -0.000546945  0   0 
gamma_shape_stat_Unfolding_SR1_Truth_bin_4_SR1_bin_1   1 +0.0141813 -0.0141813  -0.000459001   0.00068506  0   0 
gamma_shape_stat_Unfolding_SR1_Truth_bin_4_SR1_bin_2   1 +0.00767377 -0.00767377  0.00139348   -0.000976325  0   0 
gamma_shape_stat_Unfolding_SR1_Truth_bin_4_SR1_bin_3   0.999999 +0.00575269 -0.00575269  -0.00232444   0.00248551  0   0 
gamma_shape_stat_Unfolding_SR1_Truth_bin_4_SR1_bin_4   1 +0.00657367 -0.00657367  0.00285486   -0.00262139  0   0 
gamma_shape_stat_Unfolding_SR1_Truth_bin_4_SR1_bin_5   1 +0.0110388 -0.0110388  -0.00200035   0.00170077  0   0 
gamma_shape_stat_Unfolding_SR1_Truth_bin_4_SR1_bin_6   0.999999 +0.0225352 -0.0225352  -0.000396545   -0.000758847  0   0 
gamma_shape_stat_Unfolding_SR1_Truth_bin_4_SR1_bin_7   1 +0.181481 -0.181481  -8.54078e-05   0.000136977  0   0 
gamma_shape_stat_Unfolding_SR1_Truth_bin_4_SR1_bin_8   1 +0.628194 -0.628194  -0.00030207   0.000201642  0   0 
gamma_shape_stat_Unfolding_SR1_Truth_bin_4_SR1_bin_9   1 +0.967003 -0.967003  -8.43234e-05   -5.78036e-05  0   0 
gamma_shape_stat_Unfolding_SR1_Truth_bin_5_SR1_bin_0   1 +0.083251 -0.083251  0.000773141   -0.000189188  0   0 
gamma_shape_stat_Unfolding_SR1_Truth_bin_5_SR1_bin_1   0.999999 +0.0370375 -0.0370375  0.000760465   -0.000609204  0   0 
gamma_shape_stat_Unfolding_SR1_Truth_bin_5_SR1_bin_2   1 +0.016062 -0.016062  -0.00328611   0.00297431  0   0 
gamma_shape_stat_Unfolding_SR1_Truth_bin_5_SR1_bin_3   1 +0.00862804 -0.00862804  0.00860558   -0.00814078  0   0 
gamma_shape_stat_Unfolding_SR1_Truth_bin_5_SR1_bin_4   1 +0.00655663 -0.00655663  -0.0139451   0.0150279  0   0 
gamma_shape_stat_Unfolding_SR1_Truth_bin_5_SR1_bin_5   0.999998 +0.00742899 -0.00742899  0.0145175   -0.0133376  0   0 
gamma_shape_stat_Unfolding_SR1_Truth_bin_5_SR1_bin_6   1 +0.0111295 -0.0111295  -0.00556255   0.00607291  0   0 
gamma_shape_stat_Unfolding_SR1_Truth_bin_5_SR1_bin_7   1 +0.0612456 -0.0612456  0.00187214   -0.00239801  0   0 
gamma_shape_stat_Unfolding_SR1_Truth_bin_5_SR1_bin_8   0.999997 +0.540993 -0.540993  -0.000318904   0.000344321  0   0 
gamma_shape_stat_Unfolding_SR1_Truth_bin_6_SR1_bin_0   0.999998 +0.187174 -0.187174  -6.0665e-05   0.000299876  0   0 
gamma_shape_stat_Unfolding_SR1_Truth_bin_6_SR1_bin_1   1 +0.0931779 -0.0931779  7.64773e-05   0.000148523  0   0 
gamma_shape_stat_Unfolding_SR1_Truth_bin_6_SR1_bin_2   1 +0.0412325 -0.0412325  0.00016084   -0.000162393  0   0 
gamma_shape_stat_Unfolding_SR1_Truth_bin_6_SR1_bin_3   1 +0.0183303 -0.0183303  -0.000410479   0.00122862  0   0 
gamma_shape_stat_Unfolding_SR1_Truth_bin_6_SR1_bin_4   0.999999 +0.00996354 -0.00996354  0.00169246   -0.00183192  0   0 
gamma_shape_stat_Unfolding_SR1_Truth_bin_6_SR1_bin_5   1 +0.00750413 -0.00750413  -0.00229162   0.0024559  0   0 
gamma_shape_stat_Unfolding_SR1_Truth_bin_6_SR1_bin_6   0.999999 +0.00719349 -0.00719349  0.00143594   -0.00103548  0   0 
gamma_shape_stat_Unfolding_SR1_Truth_bin_6_SR1_bin_7   0.999999 +0.0265401 -0.0265401  -0.000823025   0.00145983  0   0 
gamma_shape_stat_Unfolding_SR1_Truth_bin_6_SR1_bin_8   1 +0.168316 -0.168316  0.000316512   -0.00028157  0   0 
gamma_shape_stat_Unfolding_SR1_Truth_bin_7_SR1_bin_0   0.999999 +0.271378 -0.271378  -6.15164e-05   0.000427274  0   0 
gamma_shape_stat_Unfolding_SR1_Truth_bin_7_SR1_bin_1   1 +0.164595 -0.164595  -0.000266985   8.73955e-05  0   0 
gamma_shape_stat_Unfolding_SR1_Truth_bin_7_SR1_bin_2   1 +0.0816731 -0.0816731  -0.000387629   0.000708697  0   0 
gamma_shape_stat_Unfolding_SR1_Truth_bin_7_SR1_bin_3   1 +0.0416002 -0.0416002  0.00098212   -0.00087598  0   0 
gamma_shape_stat_Unfolding_SR1_Truth_bin_7_SR1_bin_4   1 +0.0186947 -0.0186947  -0.00260777   0.00277004  0   0 
gamma_shape_stat_Unfolding_SR1_Truth_bin_7_SR1_bin_5   1 +0.00996487 -0.00996487  0.00551783   -0.00576802  0   0 
gamma_shape_stat_Unfolding_SR1_Truth_bin_7_SR1_bin_6   1 +0.00488834 -0.00488834  -0.00702341   0.00691883  0   0 
gamma_shape_stat_Unfolding_SR1_Truth_bin_7_SR1_bin_7   1 +0.0075064 -0.0075064  0.00824311   -0.00865508  0   0 
gamma_shape_stat_Unfolding_SR1_Truth_bin_7_SR1_bin_8   0.999999 +0.0286081 -0.0286081  -0.00408714   0.00423467  0   0 
gamma_shape_stat_Unfolding_SR1_Truth_bin_7_SR1_bin_9   1 +0.156213 -0.156213  9.50648e-05   -0.00044662  0   0 
gamma_shape_stat_Unfolding_SR1_Truth_bin_8_SR1_bin_0   1 +0.568973 -0.568973  0.000143494   2.4707e-05  0   0 
gamma_shape_stat_Unfolding_SR1_Truth_bin_8_SR1_bin_1   1 +0.358352 -0.358352  -0.000414538   6.69004e-05  0   0 
gamma_shape_stat_Unfolding_SR1_Truth_bin_8_SR1_bin_2   1 +0.325961 -0.325961  4.37525e-05   -0.00022406  0   0 
gamma_shape_stat_Unfolding_SR1_Truth_bin_8_SR1_bin_3   1 +0.143704 -0.143704  0.0011883   -1.60283e-05  0   0 
gamma_shape_stat_Unfolding_SR1_Truth_bin_8_SR1_bin_4   0.999999 +0.0882865 -0.0882865  -0.000180307   0.000249629  0   0 
gamma_shape_stat_Unfolding_SR1_Truth_bin_8_SR1_bin_5   1 +0.0438893 -0.0438893  0.000719338   -0.000622253  0   0 
gamma_shape_stat_Unfolding_SR1_Truth_bin_8_SR1_bin_6   1 +0.0108671 -0.0108671  -0.00153655   0.00110559  0   0 
gamma_shape_stat_Unfolding_SR1_Truth_bin_8_SR1_bin_7   0.999999 +0.00603329 -0.00603329  0.00517946   -0.00538408  0   0 
gamma_shape_stat_Unfolding_SR1_Truth_bin_8_SR1_bin_8   1 +0.00862033 -0.00862033  -0.00643301   0.006412  0   0 
gamma_shape_stat_Unfolding_SR1_Truth_bin_8_SR1_bin_9   1 +0.0289653 -0.0289653  7.56605e-05   -0.000304604  0   0 
gamma_shape_stat_Unfolding_SR1_Truth_bin_9_SR1_bin_0   1 +0.967001 -0.967001  2.13554e-05   0.000321657  0   0 
gamma_shape_stat_Unfolding_SR1_Truth_bin_9_SR1_bin_1   1 +0.967003 -0.967003  0.000137006   4.60985e-05  0   0 
gamma_shape_stat_Unfolding_SR1_Truth_bin_9_SR1_bin_2   1 +0.571243 -0.571243  7.62564e-05   -9.14071e-05  0   0 
gamma_shape_stat_Unfolding_SR1_Truth_bin_9_SR1_bin_3   1 +0.324499 -0.324499  8.1043e-05   -0.000302043  0   0 
gamma_shape_stat_Unfolding_SR1_Truth_bin_9_SR1_bin_4   1 +0.219042 -0.219042  -0.000148998   -0.000108172  0   0 
gamma_shape_stat_Unfolding_SR1_Truth_bin_9_SR1_bin_5   1 +0.19052 -0.19052  0.000444428   -1.42799e-05  0   0 
gamma_shape_stat_Unfolding_SR1_Truth_bin_9_SR1_bin_6   1 +0.0436878 -0.0436878  -0.000282637   0.000375124  0   0 
gamma_shape_stat_Unfolding_SR1_Truth_bin_9_SR1_bin_7   1 +0.0118217 -0.0118217  0.00176629   -0.00165042  0   0 
gamma_shape_stat_Unfolding_SR1_Truth_bin_9_SR1_bin_8   1 +0.00667275 -0.00667275  -0.00569538   0.00577493  0   0 
gamma_shape_stat_Unfolding_SR1_Truth_bin_9_SR1_bin_9   1 +0.00907197 -0.00907197  0.000509418   -0.000318224  0   0 
