bTag_SF_B_eigen0   -6.31791e-05 +0.993352 -0.993352  -0.000384194   0.000122703  -0.000321486   -0.000134287 
Bkg_norm   -0.000511302 +0.957291 -0.957291  -0.556825   0.568665  -0.587034   0.586016 
PS   -0.000415471 +0.992483 -0.992483  -0.101101   0.0859866  -0.101926   0.0871624 
TotalXS   0 +1 -1  4.01025e-07   4.01025e-07  0   0 
gamma_shape_stat_Unfolding_SR1_Truth_bin_10_SR1_bin_10   0.999999 +0.0233522 -0.0233522  0.000401594   -0.000269311  0   0 
gamma_shape_stat_Unfolding_SR1_Truth_bin_10_SR1_bin_2   1 +0.967002 -0.967002  0.000311576   -0.000281886  0   0 
gamma_shape_stat_Unfolding_SR1_Truth_bin_10_SR1_bin_4   1 +0.375675 -0.375675  -0.000447259   -0.000376281  0   0 
gamma_shape_stat_Unfolding_SR1_Truth_bin_10_SR1_bin_5   1 +0.520148 -0.520148  -7.74047e-05   -0.0022671  0   0 
gamma_shape_stat_Unfolding_SR1_Truth_bin_10_SR1_bin_6   1 +0.153176 -0.153176  -0.000370559   0.00273774  0   0 
gamma_shape_stat_Unfolding_SR1_Truth_bin_10_SR1_bin_7   1 +0.0487154 -0.0487154  0.000141532   -0.00240626  0   0 
gamma_shape_stat_Unfolding_SR1_Truth_bin_10_SR1_bin_8   1 +0.0146865 -0.0146865  -6.5342e-05   -0.000381504  0   0 
gamma_shape_stat_Unfolding_SR1_Truth_bin_10_SR1_bin_9   1 +0.0046759 -0.0046759  -0.000791775   -0.000864642  0   0 
gamma_shape_stat_Unfolding_SR1_Truth_bin_11_SR1_bin_10   1 +0.0113328 -0.0113328  -0.0018633   -0.000730549  0   0 
gamma_shape_stat_Unfolding_SR1_Truth_bin_11_SR1_bin_8   1 +0.886673 -0.886673  -0.000326881   0.000600154  0   0 
gamma_shape_stat_Unfolding_SR1_Truth_bin_11_SR1_bin_9   1 +0.0390301 -0.0390301  -0.00408652   -0.00543211  0   0 
gamma_shape_stat_Unfolding_SR1_Truth_bin_1_SR1_bin_0   1 +0.00594781 -0.00594781  0.0188802   -0.0201464  0   0 
gamma_shape_stat_Unfolding_SR1_Truth_bin_1_SR1_bin_1   0.999999 +0.00627076 -0.00627076  -0.0322092   0.0316483  0   0 
gamma_shape_stat_Unfolding_SR1_Truth_bin_1_SR1_bin_2   1 +0.0118225 -0.0118225  0.0299296   -0.0272702  0   0 
gamma_shape_stat_Unfolding_SR1_Truth_bin_1_SR1_bin_3   1 +0.0265108 -0.0265108  -0.0112019   0.0108582  0   0 
gamma_shape_stat_Unfolding_SR1_Truth_bin_1_SR1_bin_4   1 +0.0561618 -0.0561618  0.00383687   0.00320081  0   0 
gamma_shape_stat_Unfolding_SR1_Truth_bin_1_SR1_bin_5   1 +0.154972 -0.154972  0.000376216   -0.000222948  0   0 
gamma_shape_stat_Unfolding_SR1_Truth_bin_1_SR1_bin_6   1 +0.475086 -0.475086  0.000686373   -0.000801491  0   0 
gamma_shape_stat_Unfolding_SR1_Truth_bin_2_SR1_bin_0   0.999999 +0.00651557 -0.00651557  0.0040151   -0.00627643  0   0 
gamma_shape_stat_Unfolding_SR1_Truth_bin_2_SR1_bin_1   1 +0.00468599 -0.00468599  -0.0161946   0.0155667  0   0 
gamma_shape_stat_Unfolding_SR1_Truth_bin_2_SR1_bin_2   1 +0.00552367 -0.00552367  0.0193734   -0.0219028  0   0 
gamma_shape_stat_Unfolding_SR1_Truth_bin_2_SR1_bin_3   1 +0.00986108 -0.00986108  -0.0137232   0.0121792  0   0 
gamma_shape_stat_Unfolding_SR1_Truth_bin_2_SR1_bin_4   1 +0.021397 -0.021397  0.00464805   -0.00351556  0   0 
gamma_shape_stat_Unfolding_SR1_Truth_bin_2_SR1_bin_5   1 +0.063119 -0.063119  -0.00103973   -0.00132903  0   0 
gamma_shape_stat_Unfolding_SR1_Truth_bin_2_SR1_bin_6   1 +0.162988 -0.162988  -0.00108983   0.000445372  0   0 
gamma_shape_stat_Unfolding_SR1_Truth_bin_2_SR1_bin_7   1 +0.851869 -0.851869  -0.000376143   -0.000254711  0   0 
gamma_shape_stat_Unfolding_SR1_Truth_bin_3_SR1_bin_0   1 +0.0135374 -0.0135374  0.00586605   -0.00993127  0   0 
gamma_shape_stat_Unfolding_SR1_Truth_bin_3_SR1_bin_1   1 +0.00674912 -0.00674912  -0.0322133   0.0296393  0   0 
gamma_shape_stat_Unfolding_SR1_Truth_bin_3_SR1_bin_2   1 +0.00517337 -0.00517337  0.0569681   -0.064353  0   0 
gamma_shape_stat_Unfolding_SR1_Truth_bin_3_SR1_bin_3   1 +0.00596894 -0.00596894  -0.0575536   0.0571101  0   0 
gamma_shape_stat_Unfolding_SR1_Truth_bin_3_SR1_bin_4   1 +0.00998384 -0.00998384  0.0177607   -0.0189315  0   0 
gamma_shape_stat_Unfolding_SR1_Truth_bin_3_SR1_bin_5   1 +0.023499 -0.023499  -0.00174325   0.00849955  0   0 
gamma_shape_stat_Unfolding_SR1_Truth_bin_3_SR1_bin_6   1 +0.0576039 -0.0576039  -0.000690054   0.00155748  0   0 
gamma_shape_stat_Unfolding_SR1_Truth_bin_3_SR1_bin_7   1 +0.443725 -0.443725  0.000153138   -0.000397424  0   0 
gamma_shape_stat_Unfolding_SR1_Truth_bin_3_SR1_bin_8   0.999997 +0.967 -0.967  -0.000846288   -0.000236898  0   0 
gamma_shape_stat_Unfolding_SR1_Truth_bin_4_SR1_bin_0   0.999997 +0.0339771 -0.0339771  -0.00137462   -0.00174573  0   0 
gamma_shape_stat_Unfolding_SR1_Truth_bin_4_SR1_bin_1   1 +0.0141813 -0.0141813  0.00322256   -0.00387425  0   0 
gamma_shape_stat_Unfolding_SR1_Truth_bin_4_SR1_bin_2   1 +0.00767377 -0.00767377  -0.0125262   0.0136152  0   0 
gamma_shape_stat_Unfolding_SR1_Truth_bin_4_SR1_bin_3   0.999999 +0.00575269 -0.00575269  0.0157058   -0.0178893  0   0 
gamma_shape_stat_Unfolding_SR1_Truth_bin_4_SR1_bin_4   1 +0.00657367 -0.00657367  -0.010423   0.00965213  0   0 
gamma_shape_stat_Unfolding_SR1_Truth_bin_4_SR1_bin_5   1 +0.0110388 -0.0110388  0.00108735   -0.00387264  0   0 
gamma_shape_stat_Unfolding_SR1_Truth_bin_4_SR1_bin_6   0.999999 +0.0225352 -0.0225352  -0.00654975   -0.000468325  0   0 
gamma_shape_stat_Unfolding_SR1_Truth_bin_4_SR1_bin_7   1 +0.181481 -0.181481  -0.000121569   -0.000613477  0   0 
gamma_shape_stat_Unfolding_SR1_Truth_bin_4_SR1_bin_8   1 +0.628194 -0.628194  -0.00336206   0.0005158  0   0 
gamma_shape_stat_Unfolding_SR1_Truth_bin_4_SR1_bin_9   1 +0.967003 -0.967003  -0.000401903   -0.000667889  0   0 
gamma_shape_stat_Unfolding_SR1_Truth_bin_5_SR1_bin_0   1 +0.083251 -0.083251  0.00656463   -0.00298072  0   0 
gamma_shape_stat_Unfolding_SR1_Truth_bin_5_SR1_bin_1   0.999999 +0.0370375 -0.0370375  -0.00797602   0.00768163  0   0 
gamma_shape_stat_Unfolding_SR1_Truth_bin_5_SR1_bin_2   1 +0.016062 -0.016062  0.0234407   -0.0264969  0   0 
gamma_shape_stat_Unfolding_SR1_Truth_bin_5_SR1_bin_3   1 +0.00862804 -0.00862804  -0.054881   0.0509811  0   0 
gamma_shape_stat_Unfolding_SR1_Truth_bin_5_SR1_bin_4   1 +0.00655663 -0.00655663  0.0412637   -0.0456806  0   0 
gamma_shape_stat_Unfolding_SR1_Truth_bin_5_SR1_bin_5   0.999998 +0.00742899 -0.00742899  -0.0147099   0.0165307  0   0 
gamma_shape_stat_Unfolding_SR1_Truth_bin_5_SR1_bin_6   1 +0.0111295 -0.0111295  0.00063941   -0.000336593  0   0 
gamma_shape_stat_Unfolding_SR1_Truth_bin_5_SR1_bin_7   1 +0.0612456 -0.0612456  -0.000768521   -0.00251661  0   0 
gamma_shape_stat_Unfolding_SR1_Truth_bin_5_SR1_bin_8   0.999997 +0.540993 -0.540993  0.000998496   -0.00142286  0   0 
gamma_shape_stat_Unfolding_SR1_Truth_bin_6_SR1_bin_0   0.999998 +0.187174 -0.187174  -0.000904027   0.00126676  0   0 
gamma_shape_stat_Unfolding_SR1_Truth_bin_6_SR1_bin_1   1 +0.0931779 -0.0931779  0.000203625   -0.000744111  0   0 
gamma_shape_stat_Unfolding_SR1_Truth_bin_6_SR1_bin_2   1 +0.0412325 -0.0412325  -0.00237699   0.00315652  0   0 
gamma_shape_stat_Unfolding_SR1_Truth_bin_6_SR1_bin_3   1 +0.0183303 -0.0183303  0.00520606   0.000319353  0   0 
gamma_shape_stat_Unfolding_SR1_Truth_bin_6_SR1_bin_4   0.999999 +0.00996354 -0.00996354  -0.00618442   0.00413886  0   0 
gamma_shape_stat_Unfolding_SR1_Truth_bin_6_SR1_bin_5   1 +0.00750413 -0.00750413  0.00251263   -0.00319801  0   0 
gamma_shape_stat_Unfolding_SR1_Truth_bin_6_SR1_bin_6   0.999999 +0.00719349 -0.00719349  -0.000889481   0.00149135  0   0 
gamma_shape_stat_Unfolding_SR1_Truth_bin_6_SR1_bin_7   0.999999 +0.0265401 -0.0265401  -0.00218916   0.00374406  0   0 
gamma_shape_stat_Unfolding_SR1_Truth_bin_6_SR1_bin_8   1 +0.168316 -0.168316  -0.000414688   0.000156191  0   0 
gamma_shape_stat_Unfolding_SR1_Truth_bin_7_SR1_bin_0   0.999999 +0.271378 -0.271378  -0.000969531   0.00164158  0   0 
gamma_shape_stat_Unfolding_SR1_Truth_bin_7_SR1_bin_1   1 +0.164595 -0.164595  -0.00227025   0.00116737  0   0 
gamma_shape_stat_Unfolding_SR1_Truth_bin_7_SR1_bin_2   1 +0.0816731 -0.0816731  0.00144821   -0.000928784  0   0 
gamma_shape_stat_Unfolding_SR1_Truth_bin_7_SR1_bin_3   1 +0.0416002 -0.0416002  -0.00501774   0.00522878  0   0 
gamma_shape_stat_Unfolding_SR1_Truth_bin_7_SR1_bin_4   1 +0.0186947 -0.0186947  0.00642449   -0.00922923  0   0 
gamma_shape_stat_Unfolding_SR1_Truth_bin_7_SR1_bin_5   1 +0.00996487 -0.00996487  -0.00710046   0.00394231  0   0 
gamma_shape_stat_Unfolding_SR1_Truth_bin_7_SR1_bin_6   1 +0.00488834 -0.00488834  0.000863829   -0.000351944  0   0 
gamma_shape_stat_Unfolding_SR1_Truth_bin_7_SR1_bin_7   1 +0.0075064 -0.0075064  -0.00105168   -0.00102268  0   0 
gamma_shape_stat_Unfolding_SR1_Truth_bin_7_SR1_bin_8   0.999999 +0.0286081 -0.0286081  -0.00102015   0.000709399  0   0 
gamma_shape_stat_Unfolding_SR1_Truth_bin_7_SR1_bin_9   1 +0.156213 -0.156213  -0.000593116   -0.00146287  0   0 
gamma_shape_stat_Unfolding_SR1_Truth_bin_8_SR1_bin_0   1 +0.568973 -0.568973  -6.14784e-05   -0.000427379  0   0 
gamma_shape_stat_Unfolding_SR1_Truth_bin_8_SR1_bin_1   1 +0.358352 -0.358352  -0.00168545   -0.000300479  0   0 
gamma_shape_stat_Unfolding_SR1_Truth_bin_8_SR1_bin_2   1 +0.325961 -0.325961  0.000993351   -0.00150579  0   0 
gamma_shape_stat_Unfolding_SR1_Truth_bin_8_SR1_bin_3   1 +0.143704 -0.143704  0.00488   0.000419798  0   0 
gamma_shape_stat_Unfolding_SR1_Truth_bin_8_SR1_bin_4   0.999999 +0.0882865 -0.0882865  0.000181174   -0.00048699  0   0 
gamma_shape_stat_Unfolding_SR1_Truth_bin_8_SR1_bin_5   1 +0.0438893 -0.0438893  -0.000366392   0.000228755  0   0 
gamma_shape_stat_Unfolding_SR1_Truth_bin_8_SR1_bin_6   1 +0.0108671 -0.0108671  -0.000318893   -0.00119638  0   0 
gamma_shape_stat_Unfolding_SR1_Truth_bin_8_SR1_bin_7   0.999999 +0.00603329 -0.00603329  -0.000231279   -0.00107747  0   0 
gamma_shape_stat_Unfolding_SR1_Truth_bin_8_SR1_bin_8   1 +0.00862033 -0.00862033  -0.000407053   -0.000570674  0   0 
gamma_shape_stat_Unfolding_SR1_Truth_bin_8_SR1_bin_9   1 +0.0289653 -0.0289653  -0.000366737   -0.0013898  0   0 
gamma_shape_stat_Unfolding_SR1_Truth_bin_9_SR1_bin_0   1 +0.967001 -0.967001  -0.000355417   0.000236636  0   0 
gamma_shape_stat_Unfolding_SR1_Truth_bin_9_SR1_bin_1   1 +0.967003 -0.967003  0.000813993   -0.000163709  0   0 
gamma_shape_stat_Unfolding_SR1_Truth_bin_9_SR1_bin_2   1 +0.571243 -0.571243  0.000906382   -0.00101044  0   0 
gamma_shape_stat_Unfolding_SR1_Truth_bin_9_SR1_bin_3   1 +0.324499 -0.324499  -0.00103266   -0.00120674  0   0 
gamma_shape_stat_Unfolding_SR1_Truth_bin_9_SR1_bin_4   1 +0.219042 -0.219042  -0.000601761   -0.000852437  0   0 
gamma_shape_stat_Unfolding_SR1_Truth_bin_9_SR1_bin_5   1 +0.19052 -0.19052  0.00154598   -0.000361979  0   0 
gamma_shape_stat_Unfolding_SR1_Truth_bin_9_SR1_bin_6   1 +0.0436878 -0.0436878  -0.000728305   0.000141212  0   0 
gamma_shape_stat_Unfolding_SR1_Truth_bin_9_SR1_bin_7   1 +0.0118217 -0.0118217  -0.000396989   -0.000262788  0   0 
gamma_shape_stat_Unfolding_SR1_Truth_bin_9_SR1_bin_8   1 +0.00667275 -0.00667275  -0.00210143   -0.00012337  0   0 
gamma_shape_stat_Unfolding_SR1_Truth_bin_9_SR1_bin_9   1 +0.00907197 -0.00907197  0.000796986   -0.000666694  0   0 
